# def login():
#     if request.method == "GET":
#         form = LoginForm()
#         if form.validate_on_submit():
#             flash('Login requested for user {}, remember_me={}'.format(
#             form.username.data, form.remember_me.data))
#         return render_template('login.html', title='Sign In', form=form)
#     elif request.method == "POST":
#         username = request.form.get('username')
#         password = request.form.get('password')
#         print(api.login(username, password))
#         return redirect(url_for('index'))


    # username = request.form.get('username')
    # password = request.form.get('password')